Ter, 20 Mai 2014 11:14:19 

MCA:
LiveTime: 174333.0
DeadTime: 0.521415910929%
ADC_Conversion:  85461
Serial Number:   0

MCB:
LiveTime: 174333.0
DeadTime: 0.539771586561%
ADC_Conversion:  85462
Serial Number:   0

